%YAML 1.1
%TAG !u! tag:unity3d.com,2011:
--- !u!1045 &1
EditorBuildSettings:
  m_ObjectHideFlags: 0
  serializedVersion: 2
  m_Scenes: []
  m_configObjects:
    Unity.XR.OpenVR.Settings: {fileID: 11400000, guid: 7c32b83e606b10b43afc239676c019b4, type: 2}
    com.unity.xr.management.loader_settings: {fileID: 11400000, guid: 11de65cd4aa348943a5c8bab11b50457, type: 2}
